%YAML 1.1
%TAG !u! tag:unity3d.com,2011:
--- !u!114 &11400000
MonoBehaviour:
  m_ObjectHideFlags: 0
  m_CorrespondingSourceObject: {fileID: 0}
  m_PrefabInstance: {fileID: 0}
  m_PrefabAsset: {fileID: 0}
  m_GameObject: {fileID: 0}
  m_Enabled: 1
  m_EditorHideFlags: 0
  m_Script: {fileID: 11500000, guid: cbf2b71a297b84564b930517da7ba2d8, type: 3}
  m_Name: DuckShootPreset
  m_EditorClassIdentifier: 
  Strength: {x: 0.15, y: 2, z: 0}
  Duration: 0.15
  Vibrato: 2
  Randomness: 0
  Smoothness: 0.25
  UseRandomInitialAngle: 1
  InitialAngle: 0
  Rotation: {x: 0, y: 0, z: 0}
  IgnoreTimeScale: 0
